
----------------------------------------------------------------------------
Journal Pool Control Structure
----------------------------------------------------------------------------
Offset     Size
0x........ 0x000C CTL Label                                      GDSRPLUNX04
0x........ 0x0001 CTL Type                                           JNLPOOL
0x........ 0x0024 CTL YottaDB Version                         ##YDBVERSION##
0x........ 0x0100 CTL Instance file name                        ##INSTFILE##
0x........ 0x0008 CTL Start Journal Seqno                                  1 [0x0000000000000001]
0x........ 0x0008 CTL Journal Seqno                            ##JNLSEQNO1##
0x........ 0x0008 CTL Last histinfo Seqno                                  1 [0x0000000000000001]
0x........ 0x0008 CTL Journal Data Base Offset                  ##JNLDBOFF## [0x........]
0x........ 0x0008 CTL Journal Pool Size (in bytes)            ##JNLPOOLSIZ## [0x........]
0x........ 0x0008 CTL Reserved Write Offset                      ##OFFSET1##
0x........ 0x0008 CTL Absolute Write Offset                      ##OFFSET1##
0x........ 0x0004 CTL Updates Disabled                                 FALSE
0x........ 0x0004 CTL Last Write Length (in bytes)                        88 [0x00000058]
0x........ 0x0004 CTL Send LostTN Complete                             FALSE
0x........ 0x0010 CTL Primary Instance Name                                 
0x........ 0x0008 CTL Zqgblmod Seqno                                       0 [0x0000000000000000]
0x........ 0x0004 CTL Prev JnlSeqno Time                 ..../../.. ..:..:..
0x........ 0x0004 CTL Protocol Version                                     6 [0x00000006]
0x........ 0x0004 CTL Journal Version                                     45 [0x0000002D]
0x........ 0x0004 CTL Standard Null Collation                           TRUE
0x........ 0x0004 CTL Trigger Supported                    ##TRUE_OR_FALSE##
0x........ 0x0004 CTL Supplementary Instance               ##TRUE_OR_FALSE##
0x........ 0x0004 CTL Online Rollback PID                                  0 [0x00000000]
0x........ 0x0004 CTL Online Rollback Cycle                                0 [0x00000000]
0x........ 0x0004 CTL Freeze                                           FALSE
0x........ 0x0004 CTL Custom Errors Loaded                 ##TRUE_OR_FALSE##
0x........ 0x0004 CTL FTOK Counter Halted                  ##TRUE_OR_FALSE##
0x........ 0x0004 CTL Phase2 Commit Index1                   ##PHS2CMTINDX## [0x........]
0x........ 0x0004 CTL Phase2 Commit Index2                   ##PHS2CMTINDX## [0x........]
0x........ 0x0000 CTL Phase2 Commit IndexMax                           16384 [0x00004000]
0x........ 0x0008 CTL Phase2 Commit Latch Pid                              0 [0x00000000]
0x........ 0x0008 CTL JnlPoolWrite Sleep       Cntr                        0 [0x00000000]
0x........ 0x0008 CTL JnlPoolWrite Sleep       Seqno                       0 [0x00000000]
0x........ 0x0008 CTL Phs2CmtArrayFull Sleep   Cntr                        0 [0x00000000]
0x........ 0x0008 CTL Phs2CmtArrayFull Sleep   Seqno                       0 [0x00000000]
0x........ 0x0008 CTL ReplPhs2Clnup IsPrcAlv   Cntr                        0 [0x00000000]
0x........ 0x0008 CTL ReplPhs2Clnup IsPrcAlv   Seqno                       0 [0x00000000]

----------------------------------------------------------------------------
File Header
----------------------------------------------------------------------------
Offset     Size
0x........ 0x000C HDR Label (contains Major Version)             GDSRPLUNX05
0x........ 0x0001 HDR Minor Version                                        1
0x........ 0x0001 HDR Endian Format                                   ......
0x........ 0x0001 HDR 64-bit Format                                    .....
0x........ 0x0004 HDR Journal Pool Sem Id             .......... [0x........]
0x........ 0x0004 HDR Journal Pool Shm Id             .......... [0x........]
0x........ 0x0004 HDR Receive Pool Sem Id                            INVALID
0x........ 0x0004 HDR Receive Pool Shm Id                            INVALID
0x........ 0x000. HDR Journal Pool Sem Create Time       ..../../.. ..:..:..
0x........ 0x000. HDR Journal Pool Shm Create Time       ..../../.. ..:..:..
0x........ 0x000. HDR Receive Pool Sem Create Time                         0
0x........ 0x000. HDR Receive Pool Shm Create Time                         0
0x........ 0x0010 HDR Instance File Created Nodename            ##HOSTNAME##
0x........ 0x0010 HDR Instance Name                                INSTANCE1
0x........ 0x000. HDR Instance File Create Time          ..../../.. ..:..:..
0x........ 0x0004 HDR Instance File Creator Pid                 PIDINDECIMAL [0xPIDINHEX]
0x........ 0x0010 HDR LMS Group Created Nodename                ##HOSTNAME##
0x........ 0x0010 HDR LMS Group Instance Name                      INSTANCE1
0x........ 0x0004 HDR LMS Group Creator Pid                     PIDINDECIMAL [0xPIDINHEX]
0x........ 0x0004 HDR LMS Group Create Time              ..../../.. ..:..:..
0x........ 0x0008 HDR Journal Sequence Number                              1 [0x0000000000000001]
0x........ 0x0004 HDR Root Primary Cycle                                   1 [0x00000001]
0x........ 0x0004 HDR Number of used history records                       1 [0x00000001]
0x........ 0x0004 HDR Allocated history records                            1 [0x00000001]
0x........ 0x0004 HDR Crash                                             TRUE
0x........ 0x0004 HDR Root Primary                                      TRUE
0x........ 0x0004 HDR Supplementary Instance               ##TRUE_OR_FALSE##
0x........ 0x0004 HDR Corrupt                                          FALSE
0x........ 0x0004 HDR Quick database rundown is active                 .....

----------------------------------------------------------------------------
Source Server Slots
----------------------------------------------------------------------------
Offset     Size
0x........ 0x0010 SLT # 0 : Secondary Instance Name               INSTANCE19
0x........ 0x0008 SLT # 0 : Resync Sequence Number             ##JNLSEQNO1##
0x........ 0x0008 SLT # 0 : Connect Sequence Number            ##JNLSEQNO2##
----------------------------------------------------------------------------
Offset     Size
0x........ 0x0010 SLT # 1 : Secondary Instance Name               INSTANCE20
0x........ 0x0008 SLT # 1 : Resync Sequence Number             ##JNLSEQNO1##
0x........ 0x0008 SLT # 1 : Connect Sequence Number            ##JNLSEQNO2##
----------------------------------------------------------------------------
Offset     Size
0x........ 0x0010 SLT # 2 : Secondary Instance Name                INSTANCE4
0x........ 0x0008 SLT # 2 : Resync Sequence Number             ##JNLSEQNO2##
0x........ 0x0008 SLT # 2 : Connect Sequence Number                        1 [0x0000000000000001]
----------------------------------------------------------------------------
Offset     Size
0x........ 0x0010 SLT # 3 : Secondary Instance Name                INSTANCE5
0x........ 0x0008 SLT # 3 : Resync Sequence Number             ##JNLSEQNO2##
0x........ 0x0008 SLT # 3 : Connect Sequence Number                        1 [0x0000000000000001]
----------------------------------------------------------------------------
Offset     Size
0x........ 0x0010 SLT # 4 : Secondary Instance Name                INSTANCE6
0x........ 0x0008 SLT # 4 : Resync Sequence Number             ##JNLSEQNO1##
0x........ 0x0008 SLT # 4 : Connect Sequence Number                        1 [0x0000000000000001]
----------------------------------------------------------------------------
Offset     Size
0x........ 0x0010 SLT # 5 : Secondary Instance Name                INSTANCE7
0x........ 0x0008 SLT # 5 : Resync Sequence Number             ##JNLSEQNO1##
0x........ 0x0008 SLT # 5 : Connect Sequence Number                        1 [0x0000000000000001]
----------------------------------------------------------------------------
Offset     Size
0x........ 0x0010 SLT # 6 : Secondary Instance Name                INSTANCE8
0x........ 0x0008 SLT # 6 : Resync Sequence Number             ##JNLSEQNO1##
0x........ 0x0008 SLT # 6 : Connect Sequence Number                        1 [0x0000000000000001]
----------------------------------------------------------------------------
Offset     Size
0x........ 0x0010 SLT # 7 : Secondary Instance Name                INSTANCE9
0x........ 0x0008 SLT # 7 : Resync Sequence Number             ##JNLSEQNO1##
0x........ 0x0008 SLT # 7 : Connect Sequence Number                        1 [0x0000000000000001]
----------------------------------------------------------------------------
Offset     Size
0x........ 0x0010 SLT # 8 : Secondary Instance Name               INSTANCE10
0x........ 0x0008 SLT # 8 : Resync Sequence Number             ##JNLSEQNO1##
0x........ 0x0008 SLT # 8 : Connect Sequence Number                        1 [0x0000000000000001]
----------------------------------------------------------------------------
Offset     Size
0x........ 0x0010 SLT # 9 : Secondary Instance Name               INSTANCE11
0x........ 0x0008 SLT # 9 : Resync Sequence Number             ##JNLSEQNO1##
0x........ 0x0008 SLT # 9 : Connect Sequence Number                        1 [0x0000000000000001]
----------------------------------------------------------------------------
Offset     Size
0x........ 0x0010 SLT #10 : Secondary Instance Name               INSTANCE12
0x........ 0x0008 SLT #10 : Resync Sequence Number             ##JNLSEQNO1##
0x........ 0x0008 SLT #10 : Connect Sequence Number                        1 [0x0000000000000001]
----------------------------------------------------------------------------
Offset     Size
0x........ 0x0010 SLT #11 : Secondary Instance Name               INSTANCE13
0x........ 0x0008 SLT #11 : Resync Sequence Number             ##JNLSEQNO1##
0x........ 0x0008 SLT #11 : Connect Sequence Number                        1 [0x0000000000000001]
----------------------------------------------------------------------------
Offset     Size
0x........ 0x0010 SLT #12 : Secondary Instance Name               INSTANCE14
0x........ 0x0008 SLT #12 : Resync Sequence Number             ##JNLSEQNO1##
0x........ 0x0008 SLT #12 : Connect Sequence Number                        1 [0x0000000000000001]
----------------------------------------------------------------------------
Offset     Size
0x........ 0x0010 SLT #13 : Secondary Instance Name               INSTANCE15
0x........ 0x0008 SLT #13 : Resync Sequence Number             ##JNLSEQNO1##
0x........ 0x0008 SLT #13 : Connect Sequence Number                        1 [0x0000000000000001]
----------------------------------------------------------------------------
Offset     Size
0x........ 0x0010 SLT #14 : Secondary Instance Name               INSTANCE16
0x........ 0x0008 SLT #14 : Resync Sequence Number             ##JNLSEQNO1##
0x........ 0x0008 SLT #14 : Connect Sequence Number                        1 [0x0000000000000001]
----------------------------------------------------------------------------
Offset     Size
0x........ 0x0010 SLT #15 : Secondary Instance Name               INSTANCE17
0x........ 0x0008 SLT #15 : Resync Sequence Number             ##JNLSEQNO1##
0x........ 0x0008 SLT #15 : Connect Sequence Number                        1 [0x0000000000000001]

----------------------------------------------------------------------------
Source Server Structures
----------------------------------------------------------------------------
Offset     Size
0x........ 0x0010 SRC # 0 : Secondary Instance Name               INSTANCE19
0x........ 0x0004 SRC # 0 : Source Server Pid                        ##PID##
0x........ 0x0004 SRC # 0 : Source Server Mode                        ACTIVE
0x........ 0x0004 SRC # 0 : Processing State                 SENDING_JNLRECS
0x........ 0x0004 SRC # 0 : Slot Index                                     0
0x........ 0x0004 SRC # 0 : Journal record Compression Level         ##LVL##
0x........ 0x0004 SRC # 0 : Remote Protocol Version                        6 [0x00000006]
0x........ 0x0004 SRC # 0 : Remote Journal Version                        45 [0x0000002D]
0x........ 0x0004 SRC # 0 : Remote has Standard Null Collation          TRUE
0x........ 0x0004 SRC # 0 : Remote Supports Triggers       ##TRUE_OR_FALSE##
0x........ 0x0004 SRC # 0 : Remote is Cross Endian         ##TRUE_OR_FALSE##
0x........ 0x0004 SRC # 0 : Remote Endianness Known                     TRUE
0x........ 0x0004 SRC # 0 : Remote needs Null Subs Xform               FALSE
0x........ 0x0004 SRC # 0 : Remote is Supplementary Instance  ##TRUE/FALSE##
0x........ 0x0004 SRC # 0 : Currently Reading from          ##POOL_OR_FILE##
0x........ 0x0004 SRC # 0 : Journal File Only              ##TRUE_OR_FALSE##
0x........ 0x0008 SRC # 0 : Relative Read Offset                 ##OFFSET1##
0x........ 0x0008 SRC # 0 : Absolute Read Offset                 ##OFFSET1##
0x........ 0x0008 SRC # 0 : Resync Sequence Number             ##JNLSEQNO1##
0x........ 0x0008 SRC # 0 : Connect Sequence Number            ##JNLSEQNO2##
0x........ 0x0004 SRC # 0 : Number of histinfo structures                  1 [0x00000001]
0x........ 0x0004 SRC # 0 : Next histinfo Number                           1 [0x00000001]
0x........ 0x0008 SRC # 0 : Next histinfo Seqno         18446744073709551615 [0xFFFFFFFFFFFFFFFF]
0x........ 0x0008 SRC # 0 : Last Flush Resync Seqno            ##JNLSEQNO1##
0x........ 0x0004 SRC # 0 : Send New histinfo                          FALSE
0x........ 0x0004 SRC # 0 : Send LostTN Complete                       FALSE
0x........ 0x0100 SRC # 0 : Secondary HOSTNAME                  ##HOSTNAME##
0x........ 0x0004 SRC # 0 : Secondary Address Family        ##IPv4_OR_IPv6##
0x........ 0x.... SRC # 0 : Secondary INET Address              ##INETADDR##
0x........ 0x0004 SRC # 0 : Secondary Port                        ##PORTNO## [0x........]
0x........ 0x0004 SRC # 0 : Log Interval                                1000 [0x000003E8]
0x........ 0x0100 SRC # 0 : Log File                             ##LOGFILE##
0x........ 0x0004 SRC # 0 : Changelog                                      0 [0x00000000]
0x........ 0x0004 SRC # 0 : Statslog                                       0 [0x00000000]
0x........ 0x0100 SRC # 0 : Statslog File                                   
0x........ 0x0004 SRC # 0 : Connect Parms Hard Tries Count                 5 [0x00000005]
0x........ 0x0004 SRC # 0 : Connect Parms Hard Tries Period              500 [0x000001F4]
0x........ 0x0004 SRC # 0 : Connect Parms Soft Tries Period                5 [0x00000005]
0x........ 0x0004 SRC # 0 : Connect Parms Alert Period                     0 [0x00000000]
0x........ 0x0004 SRC # 0 : Connect Parms Heartbeat Period                15 [0x0000000F]
0x........ 0x0004 SRC # 0 : Connect Parms Heartbeat Max Wait             300 [0x0000012C]
0x........ 0x0004 SRC # 0 : Shutdown State                                 0 [0x00000000]
0x........ 0x0004 SRC # 0 : Shutdown Time in seconds                      -1 [0xFFFFFFFF]
0x........ 0x0200 SRC # 0 : Filter Command                                  
0x........ 0x0004 SRC # 0 : Next Renegotiate Time                          0
0x........ 0x0004 SRC # 0 : Number of TLS/SSL renegotiations               0 [0x00000000]
0x........ 0x0004 SRC # 0 : Trigger updates replicated (-trigupdate)  ##TorF
----------------------------------------------------------------------------
----------------------------------------------------------------------------
Offset     Size
0x........ 0x0010 SRC # 1 : Secondary Instance Name               INSTANCE20
0x........ 0x0004 SRC # 1 : Source Server Pid                        ##PID##
0x........ 0x0004 SRC # 1 : Source Server Mode                        ACTIVE
0x........ 0x0004 SRC # 1 : Processing State                 SENDING_JNLRECS
0x........ 0x0004 SRC # 1 : Slot Index                                     1
0x........ 0x0004 SRC # 1 : Journal record Compression Level         ##LVL##
0x........ 0x0004 SRC # 1 : Remote Protocol Version                        6 [0x00000006]
0x........ 0x0004 SRC # 1 : Remote Journal Version                        45 [0x0000002D]
0x........ 0x0004 SRC # 1 : Remote has Standard Null Collation          TRUE
0x........ 0x0004 SRC # 1 : Remote Supports Triggers       ##TRUE_OR_FALSE##
0x........ 0x0004 SRC # 1 : Remote is Cross Endian         ##TRUE_OR_FALSE##
0x........ 0x0004 SRC # 1 : Remote Endianness Known                     TRUE
0x........ 0x0004 SRC # 1 : Remote needs Null Subs Xform               FALSE
0x........ 0x0004 SRC # 1 : Remote is Supplementary Instance  ##TRUE/FALSE##
0x........ 0x0004 SRC # 1 : Currently Reading from          ##POOL_OR_FILE##
0x........ 0x0004 SRC # 1 : Journal File Only              ##TRUE_OR_FALSE##
0x........ 0x0008 SRC # 1 : Relative Read Offset                 ##OFFSET1##
0x........ 0x0008 SRC # 1 : Absolute Read Offset                 ##OFFSET1##
0x........ 0x0008 SRC # 1 : Resync Sequence Number             ##JNLSEQNO1##
0x........ 0x0008 SRC # 1 : Connect Sequence Number            ##JNLSEQNO2##
0x........ 0x0004 SRC # 1 : Number of histinfo structures                  1 [0x00000001]
0x........ 0x0004 SRC # 1 : Next histinfo Number                           1 [0x00000001]
0x........ 0x0008 SRC # 1 : Next histinfo Seqno         18446744073709551615 [0xFFFFFFFFFFFFFFFF]
0x........ 0x0008 SRC # 1 : Last Flush Resync Seqno            ##JNLSEQNO1##
0x........ 0x0004 SRC # 1 : Send New histinfo                          FALSE
0x........ 0x0004 SRC # 1 : Send LostTN Complete                       FALSE
0x........ 0x0100 SRC # 1 : Secondary HOSTNAME                  ##HOSTNAME##
0x........ 0x0004 SRC # 1 : Secondary Address Family        ##IPv4_OR_IPv6##
0x........ 0x.... SRC # 1 : Secondary INET Address              ##INETADDR##
0x........ 0x0004 SRC # 1 : Secondary Port                        ##PORTNO## [0x........]
0x........ 0x0004 SRC # 1 : Log Interval                                1000 [0x000003E8]
0x........ 0x0100 SRC # 1 : Log File                             ##LOGFILE##
0x........ 0x0004 SRC # 1 : Changelog                                      0 [0x00000000]
0x........ 0x0004 SRC # 1 : Statslog                                       0 [0x00000000]
0x........ 0x0100 SRC # 1 : Statslog File                                   
0x........ 0x0004 SRC # 1 : Connect Parms Hard Tries Count                 5 [0x00000005]
0x........ 0x0004 SRC # 1 : Connect Parms Hard Tries Period              500 [0x000001F4]
0x........ 0x0004 SRC # 1 : Connect Parms Soft Tries Period                5 [0x00000005]
0x........ 0x0004 SRC # 1 : Connect Parms Alert Period                     0 [0x00000000]
0x........ 0x0004 SRC # 1 : Connect Parms Heartbeat Period                15 [0x0000000F]
0x........ 0x0004 SRC # 1 : Connect Parms Heartbeat Max Wait             300 [0x0000012C]
0x........ 0x0004 SRC # 1 : Shutdown State                                 0 [0x00000000]
0x........ 0x0004 SRC # 1 : Shutdown Time in seconds                      -1 [0xFFFFFFFF]
0x........ 0x0200 SRC # 1 : Filter Command                                  
0x........ 0x0004 SRC # 1 : Next Renegotiate Time                          0
0x........ 0x0004 SRC # 1 : Number of TLS/SSL renegotiations               0 [0x00000000]
0x........ 0x0004 SRC # 1 : Trigger updates replicated (-trigupdate)  ##TorF
----------------------------------------------------------------------------
----------------------------------------------------------------------------
Offset     Size
0x........ 0x0010 SRC # 2 : Secondary Instance Name                INSTANCE4
0x........ 0x0004 SRC # 2 : Source Server Pid                        ##PID##
0x........ 0x0004 SRC # 2 : Source Server Mode                        ACTIVE
0x........ 0x0004 SRC # 2 : Processing State                     DUMMY_STATE
0x........ 0x0004 SRC # 2 : Slot Index                                     2
0x........ 0x0004 SRC # 2 : Journal record Compression Level         ##LVL##
0x........ 0x0004 SRC # 2 : Remote Protocol Version                       -1 [0xFFFFFFFF]
0x........ 0x0004 SRC # 2 : Remote Journal Version                        45 [0x0000002D]
0x........ 0x0004 SRC # 2 : Remote has Standard Null Collation          TRUE
0x........ 0x0004 SRC # 2 : Remote Supports Triggers       ##TRUE_OR_FALSE##
0x........ 0x0004 SRC # 2 : Remote is Cross Endian         ##TRUE_OR_FALSE##
0x........ 0x0004 SRC # 2 : Remote Endianness Known                    FALSE
0x........ 0x0004 SRC # 2 : Remote needs Null Subs Xform               FALSE
0x........ 0x0004 SRC # 2 : Remote is Supplementary Instance  ##TRUE/FALSE##
0x........ 0x0004 SRC # 2 : Currently Reading from          ##POOL_OR_FILE##
0x........ 0x0004 SRC # 2 : Journal File Only              ##TRUE_OR_FALSE##
0x........ 0x0008 SRC # 2 : Relative Read Offset                 ##OFFSET1##
0x........ 0x0008 SRC # 2 : Absolute Read Offset                 ##OFFSET1##
0x........ 0x0008 SRC # 2 : Resync Sequence Number             ##JNLSEQNO2##
0x........ 0x0008 SRC # 2 : Connect Sequence Number                        1 [0x0000000000000001]
0x........ 0x0004 SRC # 2 : Number of histinfo structures                  1 [0x00000001]
0x........ 0x0004 SRC # 2 : Next histinfo Number                           1 [0x00000001]
0x........ 0x0008 SRC # 2 : Next histinfo Seqno         18446744073709551615 [0xFFFFFFFFFFFFFFFF]
0x........ 0x0008 SRC # 2 : Last Flush Resync Seqno            ##JNLSEQNO2##
0x........ 0x0004 SRC # 2 : Send New histinfo                          FALSE
0x........ 0x0004 SRC # 2 : Send LostTN Complete                       FALSE
0x........ 0x0100 SRC # 2 : Secondary HOSTNAME                  ##HOSTNAME##
0x........ 0x0004 SRC # 2 : Secondary Address Family        ##IPv4_OR_IPv6##
0x........ 0x.... SRC # 2 : Secondary INET Address              ##INETADDR##
0x........ 0x0004 SRC # 2 : Secondary Port                        ##PORTNO## [0x........]
0x........ 0x0004 SRC # 2 : Log Interval                                1000 [0x000003E8]
0x........ 0x0100 SRC # 2 : Log File                             ##LOGFILE##
0x........ 0x0004 SRC # 2 : Changelog                                      0 [0x00000000]
0x........ 0x0004 SRC # 2 : Statslog                                       0 [0x00000000]
0x........ 0x0100 SRC # 2 : Statslog File                                   
0x........ 0x0004 SRC # 2 : Connect Parms Hard Tries Count                 5 [0x00000005]
0x........ 0x0004 SRC # 2 : Connect Parms Hard Tries Period              500 [0x000001F4]
0x........ 0x0004 SRC # 2 : Connect Parms Soft Tries Period                5 [0x00000005]
0x........ 0x0004 SRC # 2 : Connect Parms Alert Period                     0 [0x00000000]
0x........ 0x0004 SRC # 2 : Connect Parms Heartbeat Period                15 [0x0000000F]
0x........ 0x0004 SRC # 2 : Connect Parms Heartbeat Max Wait             300 [0x0000012C]
0x........ 0x0004 SRC # 2 : Shutdown State                                 2 [0x00000002]
0x........ 0x0004 SRC # 2 : Shutdown Time in seconds                      -1 [0xFFFFFFFF]
0x........ 0x0200 SRC # 2 : Filter Command                                  
0x........ 0x0004 SRC # 2 : Next Renegotiate Time                          0
0x........ 0x0004 SRC # 2 : Number of TLS/SSL renegotiations               0 [0x00000000]
0x........ 0x0004 SRC # 2 : Trigger updates replicated (-trigupdate)  ##TorF
----------------------------------------------------------------------------
----------------------------------------------------------------------------
Offset     Size
0x........ 0x0010 SRC # 3 : Secondary Instance Name                INSTANCE5
0x........ 0x0004 SRC # 3 : Source Server Pid                        ##PID##
0x........ 0x0004 SRC # 3 : Source Server Mode                       PASSIVE
0x........ 0x0004 SRC # 3 : Processing State                           START
0x........ 0x0004 SRC # 3 : Slot Index                                     3
0x........ 0x0004 SRC # 3 : Journal record Compression Level         ##LVL##
0x........ 0x0004 SRC # 3 : Remote Protocol Version                        6 [0x00000006]
0x........ 0x0004 SRC # 3 : Remote Journal Version                        45 [0x0000002D]
0x........ 0x0004 SRC # 3 : Remote has Standard Null Collation          TRUE
0x........ 0x0004 SRC # 3 : Remote Supports Triggers       ##TRUE_OR_FALSE##
0x........ 0x0004 SRC # 3 : Remote is Cross Endian         ##TRUE_OR_FALSE##
0x........ 0x0004 SRC # 3 : Remote Endianness Known                     TRUE
0x........ 0x0004 SRC # 3 : Remote needs Null Subs Xform               FALSE
0x........ 0x0004 SRC # 3 : Remote is Supplementary Instance  ##TRUE/FALSE##
0x........ 0x0004 SRC # 3 : Currently Reading from          ##POOL_OR_FILE##
0x........ 0x0004 SRC # 3 : Journal File Only              ##TRUE_OR_FALSE##
0x........ 0x0008 SRC # 3 : Relative Read Offset                 ##OFFSET1##
0x........ 0x0008 SRC # 3 : Absolute Read Offset                 ##OFFSET1##
0x........ 0x0008 SRC # 3 : Resync Sequence Number             ##JNLSEQNO2##
0x........ 0x0008 SRC # 3 : Connect Sequence Number                        1 [0x0000000000000001]
0x........ 0x0004 SRC # 3 : Number of histinfo structures                  1 [0x00000001]
0x........ 0x0004 SRC # 3 : Next histinfo Number                           1 [0x00000001]
0x........ 0x0008 SRC # 3 : Next histinfo Seqno         18446744073709551615 [0xFFFFFFFFFFFFFFFF]
0x........ 0x0008 SRC # 3 : Last Flush Resync Seqno            ##JNLSEQNO2##
0x........ 0x0004 SRC # 3 : Send New histinfo                          FALSE
0x........ 0x0004 SRC # 3 : Send LostTN Complete                       FALSE
0x........ 0x0100 SRC # 3 : Secondary HOSTNAME                  ##HOSTNAME##
0x........ 0x0004 SRC # 3 : Secondary Address Family        ##IPv4_OR_IPv6##
0x........ 0x.... SRC # 3 : Secondary INET Address              ##INETADDR##
0x........ 0x0004 SRC # 3 : Secondary Port                        ##PORTNO## [0x........]
0x........ 0x0004 SRC # 3 : Log Interval                                1000 [0x000003E8]
0x........ 0x0100 SRC # 3 : Log File                             ##LOGFILE##
0x........ 0x0004 SRC # 3 : Changelog                                      0 [0x00000000]
0x........ 0x0004 SRC # 3 : Statslog                                       0 [0x00000000]
0x........ 0x0100 SRC # 3 : Statslog File                                   
0x........ 0x0004 SRC # 3 : Connect Parms Hard Tries Count                 5 [0x00000005]
0x........ 0x0004 SRC # 3 : Connect Parms Hard Tries Period              500 [0x000001F4]
0x........ 0x0004 SRC # 3 : Connect Parms Soft Tries Period                5 [0x00000005]
0x........ 0x0004 SRC # 3 : Connect Parms Alert Period                     0 [0x00000000]
0x........ 0x0004 SRC # 3 : Connect Parms Heartbeat Period                15 [0x0000000F]
0x........ 0x0004 SRC # 3 : Connect Parms Heartbeat Max Wait             300 [0x0000012C]
0x........ 0x0004 SRC # 3 : Shutdown State                                 0 [0x00000000]
0x........ 0x0004 SRC # 3 : Shutdown Time in seconds                      -1 [0xFFFFFFFF]
0x........ 0x0200 SRC # 3 : Filter Command                                  
0x........ 0x0004 SRC # 3 : Next Renegotiate Time                          0
0x........ 0x0004 SRC # 3 : Number of TLS/SSL renegotiations               0 [0x00000000]
0x........ 0x0004 SRC # 3 : Trigger updates replicated (-trigupdate)  ##TorF
----------------------------------------------------------------------------
----------------------------------------------------------------------------
Offset     Size
0x........ 0x0010 SRC # 4 : Secondary Instance Name                INSTANCE6
0x........ 0x0004 SRC # 4 : Source Server Pid                        ##PID##
0x........ 0x0004 SRC # 4 : Source Server Mode                        ACTIVE
0x........ 0x0004 SRC # 4 : Processing State                 SENDING_JNLRECS
0x........ 0x0004 SRC # 4 : Slot Index                                     4
0x........ 0x0004 SRC # 4 : Journal record Compression Level         ##LVL##
0x........ 0x0004 SRC # 4 : Remote Protocol Version                        6 [0x00000006]
0x........ 0x0004 SRC # 4 : Remote Journal Version                        45 [0x0000002D]
0x........ 0x0004 SRC # 4 : Remote has Standard Null Collation          TRUE
0x........ 0x0004 SRC # 4 : Remote Supports Triggers       ##TRUE_OR_FALSE##
0x........ 0x0004 SRC # 4 : Remote is Cross Endian         ##TRUE_OR_FALSE##
0x........ 0x0004 SRC # 4 : Remote Endianness Known                     TRUE
0x........ 0x0004 SRC # 4 : Remote needs Null Subs Xform               FALSE
0x........ 0x0004 SRC # 4 : Remote is Supplementary Instance  ##TRUE/FALSE##
0x........ 0x0004 SRC # 4 : Currently Reading from          ##POOL_OR_FILE##
0x........ 0x0004 SRC # 4 : Journal File Only              ##TRUE_OR_FALSE##
0x........ 0x0008 SRC # 4 : Relative Read Offset                 ##OFFSET1##
0x........ 0x0008 SRC # 4 : Absolute Read Offset                 ##OFFSET1##
0x........ 0x0008 SRC # 4 : Resync Sequence Number             ##JNLSEQNO1##
0x........ 0x0008 SRC # 4 : Connect Sequence Number                        1 [0x0000000000000001]
0x........ 0x0004 SRC # 4 : Number of histinfo structures                  1 [0x00000001]
0x........ 0x0004 SRC # 4 : Next histinfo Number                           1 [0x00000001]
0x........ 0x0008 SRC # 4 : Next histinfo Seqno         18446744073709551615 [0xFFFFFFFFFFFFFFFF]
0x........ 0x0008 SRC # 4 : Last Flush Resync Seqno            ##JNLSEQNO1##
0x........ 0x0004 SRC # 4 : Send New histinfo                          FALSE
0x........ 0x0004 SRC # 4 : Send LostTN Complete                       FALSE
0x........ 0x0100 SRC # 4 : Secondary HOSTNAME                  ##HOSTNAME##
0x........ 0x0004 SRC # 4 : Secondary Address Family        ##IPv4_OR_IPv6##
0x........ 0x.... SRC # 4 : Secondary INET Address              ##INETADDR##
0x........ 0x0004 SRC # 4 : Secondary Port                        ##PORTNO## [0x........]
0x........ 0x0004 SRC # 4 : Log Interval                                1000 [0x000003E8]
0x........ 0x0100 SRC # 4 : Log File                             ##LOGFILE##
0x........ 0x0004 SRC # 4 : Changelog                                      0 [0x00000000]
0x........ 0x0004 SRC # 4 : Statslog                                       0 [0x00000000]
0x........ 0x0100 SRC # 4 : Statslog File                                   
0x........ 0x0004 SRC # 4 : Connect Parms Hard Tries Count                 5 [0x00000005]
0x........ 0x0004 SRC # 4 : Connect Parms Hard Tries Period              500 [0x000001F4]
0x........ 0x0004 SRC # 4 : Connect Parms Soft Tries Period                5 [0x00000005]
0x........ 0x0004 SRC # 4 : Connect Parms Alert Period                     0 [0x00000000]
0x........ 0x0004 SRC # 4 : Connect Parms Heartbeat Period                15 [0x0000000F]
0x........ 0x0004 SRC # 4 : Connect Parms Heartbeat Max Wait             300 [0x0000012C]
0x........ 0x0004 SRC # 4 : Shutdown State                                 0 [0x00000000]
0x........ 0x0004 SRC # 4 : Shutdown Time in seconds                      -1 [0xFFFFFFFF]
0x........ 0x0200 SRC # 4 : Filter Command                                  
0x........ 0x0004 SRC # 4 : Next Renegotiate Time                          0
0x........ 0x0004 SRC # 4 : Number of TLS/SSL renegotiations               0 [0x00000000]
0x........ 0x0004 SRC # 4 : Trigger updates replicated (-trigupdate)  ##TorF
----------------------------------------------------------------------------
----------------------------------------------------------------------------
Offset     Size
0x........ 0x0010 SRC # 5 : Secondary Instance Name                INSTANCE7
0x........ 0x0004 SRC # 5 : Source Server Pid                        ##PID##
0x........ 0x0004 SRC # 5 : Source Server Mode                        ACTIVE
0x........ 0x0004 SRC # 5 : Processing State                 SENDING_JNLRECS
0x........ 0x0004 SRC # 5 : Slot Index                                     5
0x........ 0x0004 SRC # 5 : Journal record Compression Level         ##LVL##
0x........ 0x0004 SRC # 5 : Remote Protocol Version                        6 [0x00000006]
0x........ 0x0004 SRC # 5 : Remote Journal Version                        45 [0x0000002D]
0x........ 0x0004 SRC # 5 : Remote has Standard Null Collation          TRUE
0x........ 0x0004 SRC # 5 : Remote Supports Triggers       ##TRUE_OR_FALSE##
0x........ 0x0004 SRC # 5 : Remote is Cross Endian         ##TRUE_OR_FALSE##
0x........ 0x0004 SRC # 5 : Remote Endianness Known                     TRUE
0x........ 0x0004 SRC # 5 : Remote needs Null Subs Xform               FALSE
0x........ 0x0004 SRC # 5 : Remote is Supplementary Instance  ##TRUE/FALSE##
0x........ 0x0004 SRC # 5 : Currently Reading from          ##POOL_OR_FILE##
0x........ 0x0004 SRC # 5 : Journal File Only              ##TRUE_OR_FALSE##
0x........ 0x0008 SRC # 5 : Relative Read Offset                 ##OFFSET1##
0x........ 0x0008 SRC # 5 : Absolute Read Offset                 ##OFFSET1##
0x........ 0x0008 SRC # 5 : Resync Sequence Number             ##JNLSEQNO1##
0x........ 0x0008 SRC # 5 : Connect Sequence Number                        1 [0x0000000000000001]
0x........ 0x0004 SRC # 5 : Number of histinfo structures                  1 [0x00000001]
0x........ 0x0004 SRC # 5 : Next histinfo Number                           1 [0x00000001]
0x........ 0x0008 SRC # 5 : Next histinfo Seqno         18446744073709551615 [0xFFFFFFFFFFFFFFFF]
0x........ 0x0008 SRC # 5 : Last Flush Resync Seqno            ##JNLSEQNO1##
0x........ 0x0004 SRC # 5 : Send New histinfo                          FALSE
0x........ 0x0004 SRC # 5 : Send LostTN Complete                       FALSE
0x........ 0x0100 SRC # 5 : Secondary HOSTNAME                  ##HOSTNAME##
0x........ 0x0004 SRC # 5 : Secondary Address Family        ##IPv4_OR_IPv6##
0x........ 0x.... SRC # 5 : Secondary INET Address              ##INETADDR##
0x........ 0x0004 SRC # 5 : Secondary Port                        ##PORTNO## [0x........]
0x........ 0x0004 SRC # 5 : Log Interval                                1000 [0x000003E8]
0x........ 0x0100 SRC # 5 : Log File                             ##LOGFILE##
0x........ 0x0004 SRC # 5 : Changelog                                      0 [0x00000000]
0x........ 0x0004 SRC # 5 : Statslog                                       0 [0x00000000]
0x........ 0x0100 SRC # 5 : Statslog File                                   
0x........ 0x0004 SRC # 5 : Connect Parms Hard Tries Count                 5 [0x00000005]
0x........ 0x0004 SRC # 5 : Connect Parms Hard Tries Period              500 [0x000001F4]
0x........ 0x0004 SRC # 5 : Connect Parms Soft Tries Period                5 [0x00000005]
0x........ 0x0004 SRC # 5 : Connect Parms Alert Period                     0 [0x00000000]
0x........ 0x0004 SRC # 5 : Connect Parms Heartbeat Period                15 [0x0000000F]
0x........ 0x0004 SRC # 5 : Connect Parms Heartbeat Max Wait             300 [0x0000012C]
0x........ 0x0004 SRC # 5 : Shutdown State                                 0 [0x00000000]
0x........ 0x0004 SRC # 5 : Shutdown Time in seconds                      -1 [0xFFFFFFFF]
0x........ 0x0200 SRC # 5 : Filter Command                                  
0x........ 0x0004 SRC # 5 : Next Renegotiate Time                          0
0x........ 0x0004 SRC # 5 : Number of TLS/SSL renegotiations               0 [0x00000000]
0x........ 0x0004 SRC # 5 : Trigger updates replicated (-trigupdate)  ##TorF
----------------------------------------------------------------------------
----------------------------------------------------------------------------
Offset     Size
0x........ 0x0010 SRC # 6 : Secondary Instance Name                INSTANCE8
0x........ 0x0004 SRC # 6 : Source Server Pid                        ##PID##
0x........ 0x0004 SRC # 6 : Source Server Mode                        ACTIVE
0x........ 0x0004 SRC # 6 : Processing State                 SENDING_JNLRECS
0x........ 0x0004 SRC # 6 : Slot Index                                     6
0x........ 0x0004 SRC # 6 : Journal record Compression Level         ##LVL##
0x........ 0x0004 SRC # 6 : Remote Protocol Version                        6 [0x00000006]
0x........ 0x0004 SRC # 6 : Remote Journal Version                        45 [0x0000002D]
0x........ 0x0004 SRC # 6 : Remote has Standard Null Collation          TRUE
0x........ 0x0004 SRC # 6 : Remote Supports Triggers       ##TRUE_OR_FALSE##
0x........ 0x0004 SRC # 6 : Remote is Cross Endian         ##TRUE_OR_FALSE##
0x........ 0x0004 SRC # 6 : Remote Endianness Known                     TRUE
0x........ 0x0004 SRC # 6 : Remote needs Null Subs Xform               FALSE
0x........ 0x0004 SRC # 6 : Remote is Supplementary Instance  ##TRUE/FALSE##
0x........ 0x0004 SRC # 6 : Currently Reading from          ##POOL_OR_FILE##
0x........ 0x0004 SRC # 6 : Journal File Only              ##TRUE_OR_FALSE##
0x........ 0x0008 SRC # 6 : Relative Read Offset                 ##OFFSET1##
0x........ 0x0008 SRC # 6 : Absolute Read Offset                 ##OFFSET1##
0x........ 0x0008 SRC # 6 : Resync Sequence Number             ##JNLSEQNO1##
0x........ 0x0008 SRC # 6 : Connect Sequence Number                        1 [0x0000000000000001]
0x........ 0x0004 SRC # 6 : Number of histinfo structures                  1 [0x00000001]
0x........ 0x0004 SRC # 6 : Next histinfo Number                           1 [0x00000001]
0x........ 0x0008 SRC # 6 : Next histinfo Seqno         18446744073709551615 [0xFFFFFFFFFFFFFFFF]
0x........ 0x0008 SRC # 6 : Last Flush Resync Seqno            ##JNLSEQNO1##
0x........ 0x0004 SRC # 6 : Send New histinfo                          FALSE
0x........ 0x0004 SRC # 6 : Send LostTN Complete                       FALSE
0x........ 0x0100 SRC # 6 : Secondary HOSTNAME                  ##HOSTNAME##
0x........ 0x0004 SRC # 6 : Secondary Address Family        ##IPv4_OR_IPv6##
0x........ 0x.... SRC # 6 : Secondary INET Address              ##INETADDR##
0x........ 0x0004 SRC # 6 : Secondary Port                        ##PORTNO## [0x........]
0x........ 0x0004 SRC # 6 : Log Interval                                1000 [0x000003E8]
0x........ 0x0100 SRC # 6 : Log File                             ##LOGFILE##
0x........ 0x0004 SRC # 6 : Changelog                                      0 [0x00000000]
0x........ 0x0004 SRC # 6 : Statslog                                       0 [0x00000000]
0x........ 0x0100 SRC # 6 : Statslog File                                   
0x........ 0x0004 SRC # 6 : Connect Parms Hard Tries Count                 5 [0x00000005]
0x........ 0x0004 SRC # 6 : Connect Parms Hard Tries Period              500 [0x000001F4]
0x........ 0x0004 SRC # 6 : Connect Parms Soft Tries Period                5 [0x00000005]
0x........ 0x0004 SRC # 6 : Connect Parms Alert Period                     0 [0x00000000]
0x........ 0x0004 SRC # 6 : Connect Parms Heartbeat Period                15 [0x0000000F]
0x........ 0x0004 SRC # 6 : Connect Parms Heartbeat Max Wait             300 [0x0000012C]
0x........ 0x0004 SRC # 6 : Shutdown State                                 0 [0x00000000]
0x........ 0x0004 SRC # 6 : Shutdown Time in seconds                      -1 [0xFFFFFFFF]
0x........ 0x0200 SRC # 6 : Filter Command                                  
0x........ 0x0004 SRC # 6 : Next Renegotiate Time                          0
0x........ 0x0004 SRC # 6 : Number of TLS/SSL renegotiations               0 [0x00000000]
0x........ 0x0004 SRC # 6 : Trigger updates replicated (-trigupdate)  ##TorF
----------------------------------------------------------------------------
----------------------------------------------------------------------------
Offset     Size
0x........ 0x0010 SRC # 7 : Secondary Instance Name                INSTANCE9
0x........ 0x0004 SRC # 7 : Source Server Pid                        ##PID##
0x........ 0x0004 SRC # 7 : Source Server Mode                        ACTIVE
0x........ 0x0004 SRC # 7 : Processing State                 SENDING_JNLRECS
0x........ 0x0004 SRC # 7 : Slot Index                                     7
0x........ 0x0004 SRC # 7 : Journal record Compression Level         ##LVL##
0x........ 0x0004 SRC # 7 : Remote Protocol Version                        6 [0x00000006]
0x........ 0x0004 SRC # 7 : Remote Journal Version                        45 [0x0000002D]
0x........ 0x0004 SRC # 7 : Remote has Standard Null Collation          TRUE
0x........ 0x0004 SRC # 7 : Remote Supports Triggers       ##TRUE_OR_FALSE##
0x........ 0x0004 SRC # 7 : Remote is Cross Endian         ##TRUE_OR_FALSE##
0x........ 0x0004 SRC # 7 : Remote Endianness Known                     TRUE
0x........ 0x0004 SRC # 7 : Remote needs Null Subs Xform               FALSE
0x........ 0x0004 SRC # 7 : Remote is Supplementary Instance  ##TRUE/FALSE##
0x........ 0x0004 SRC # 7 : Currently Reading from          ##POOL_OR_FILE##
0x........ 0x0004 SRC # 7 : Journal File Only              ##TRUE_OR_FALSE##
0x........ 0x0008 SRC # 7 : Relative Read Offset                 ##OFFSET1##
0x........ 0x0008 SRC # 7 : Absolute Read Offset                 ##OFFSET1##
0x........ 0x0008 SRC # 7 : Resync Sequence Number             ##JNLSEQNO1##
0x........ 0x0008 SRC # 7 : Connect Sequence Number                        1 [0x0000000000000001]
0x........ 0x0004 SRC # 7 : Number of histinfo structures                  1 [0x00000001]
0x........ 0x0004 SRC # 7 : Next histinfo Number                           1 [0x00000001]
0x........ 0x0008 SRC # 7 : Next histinfo Seqno         18446744073709551615 [0xFFFFFFFFFFFFFFFF]
0x........ 0x0008 SRC # 7 : Last Flush Resync Seqno            ##JNLSEQNO1##
0x........ 0x0004 SRC # 7 : Send New histinfo                          FALSE
0x........ 0x0004 SRC # 7 : Send LostTN Complete                       FALSE
0x........ 0x0100 SRC # 7 : Secondary HOSTNAME                  ##HOSTNAME##
0x........ 0x0004 SRC # 7 : Secondary Address Family        ##IPv4_OR_IPv6##
0x........ 0x.... SRC # 7 : Secondary INET Address              ##INETADDR##
0x........ 0x0004 SRC # 7 : Secondary Port                        ##PORTNO## [0x........]
0x........ 0x0004 SRC # 7 : Log Interval                                1000 [0x000003E8]
0x........ 0x0100 SRC # 7 : Log File                             ##LOGFILE##
0x........ 0x0004 SRC # 7 : Changelog                                      0 [0x00000000]
0x........ 0x0004 SRC # 7 : Statslog                                       0 [0x00000000]
0x........ 0x0100 SRC # 7 : Statslog File                                   
0x........ 0x0004 SRC # 7 : Connect Parms Hard Tries Count                 5 [0x00000005]
0x........ 0x0004 SRC # 7 : Connect Parms Hard Tries Period              500 [0x000001F4]
0x........ 0x0004 SRC # 7 : Connect Parms Soft Tries Period                5 [0x00000005]
0x........ 0x0004 SRC # 7 : Connect Parms Alert Period                     0 [0x00000000]
0x........ 0x0004 SRC # 7 : Connect Parms Heartbeat Period                15 [0x0000000F]
0x........ 0x0004 SRC # 7 : Connect Parms Heartbeat Max Wait             300 [0x0000012C]
0x........ 0x0004 SRC # 7 : Shutdown State                                 0 [0x00000000]
0x........ 0x0004 SRC # 7 : Shutdown Time in seconds                      -1 [0xFFFFFFFF]
0x........ 0x0200 SRC # 7 : Filter Command                                  
0x........ 0x0004 SRC # 7 : Next Renegotiate Time                          0
0x........ 0x0004 SRC # 7 : Number of TLS/SSL renegotiations               0 [0x00000000]
0x........ 0x0004 SRC # 7 : Trigger updates replicated (-trigupdate)  ##TorF
----------------------------------------------------------------------------
----------------------------------------------------------------------------
Offset     Size
0x........ 0x0010 SRC # 8 : Secondary Instance Name               INSTANCE10
0x........ 0x0004 SRC # 8 : Source Server Pid                        ##PID##
0x........ 0x0004 SRC # 8 : Source Server Mode                        ACTIVE
0x........ 0x0004 SRC # 8 : Processing State                 SENDING_JNLRECS
0x........ 0x0004 SRC # 8 : Slot Index                                     8
0x........ 0x0004 SRC # 8 : Journal record Compression Level         ##LVL##
0x........ 0x0004 SRC # 8 : Remote Protocol Version                        6 [0x00000006]
0x........ 0x0004 SRC # 8 : Remote Journal Version                        45 [0x0000002D]
0x........ 0x0004 SRC # 8 : Remote has Standard Null Collation          TRUE
0x........ 0x0004 SRC # 8 : Remote Supports Triggers       ##TRUE_OR_FALSE##
0x........ 0x0004 SRC # 8 : Remote is Cross Endian         ##TRUE_OR_FALSE##
0x........ 0x0004 SRC # 8 : Remote Endianness Known                     TRUE
0x........ 0x0004 SRC # 8 : Remote needs Null Subs Xform               FALSE
0x........ 0x0004 SRC # 8 : Remote is Supplementary Instance  ##TRUE/FALSE##
0x........ 0x0004 SRC # 8 : Currently Reading from          ##POOL_OR_FILE##
0x........ 0x0004 SRC # 8 : Journal File Only              ##TRUE_OR_FALSE##
0x........ 0x0008 SRC # 8 : Relative Read Offset                 ##OFFSET1##
0x........ 0x0008 SRC # 8 : Absolute Read Offset                 ##OFFSET1##
0x........ 0x0008 SRC # 8 : Resync Sequence Number             ##JNLSEQNO1##
0x........ 0x0008 SRC # 8 : Connect Sequence Number                        1 [0x0000000000000001]
0x........ 0x0004 SRC # 8 : Number of histinfo structures                  1 [0x00000001]
0x........ 0x0004 SRC # 8 : Next histinfo Number                           1 [0x00000001]
0x........ 0x0008 SRC # 8 : Next histinfo Seqno         18446744073709551615 [0xFFFFFFFFFFFFFFFF]
0x........ 0x0008 SRC # 8 : Last Flush Resync Seqno            ##JNLSEQNO1##
0x........ 0x0004 SRC # 8 : Send New histinfo                          FALSE
0x........ 0x0004 SRC # 8 : Send LostTN Complete                       FALSE
0x........ 0x0100 SRC # 8 : Secondary HOSTNAME                  ##HOSTNAME##
0x........ 0x0004 SRC # 8 : Secondary Address Family        ##IPv4_OR_IPv6##
0x........ 0x.... SRC # 8 : Secondary INET Address              ##INETADDR##
0x........ 0x0004 SRC # 8 : Secondary Port                        ##PORTNO## [0x........]
0x........ 0x0004 SRC # 8 : Log Interval                                1000 [0x000003E8]
0x........ 0x0100 SRC # 8 : Log File                             ##LOGFILE##
0x........ 0x0004 SRC # 8 : Changelog                                      0 [0x00000000]
0x........ 0x0004 SRC # 8 : Statslog                                       0 [0x00000000]
0x........ 0x0100 SRC # 8 : Statslog File                                   
0x........ 0x0004 SRC # 8 : Connect Parms Hard Tries Count                 5 [0x00000005]
0x........ 0x0004 SRC # 8 : Connect Parms Hard Tries Period              500 [0x000001F4]
0x........ 0x0004 SRC # 8 : Connect Parms Soft Tries Period                5 [0x00000005]
0x........ 0x0004 SRC # 8 : Connect Parms Alert Period                     0 [0x00000000]
0x........ 0x0004 SRC # 8 : Connect Parms Heartbeat Period                15 [0x0000000F]
0x........ 0x0004 SRC # 8 : Connect Parms Heartbeat Max Wait             300 [0x0000012C]
0x........ 0x0004 SRC # 8 : Shutdown State                                 0 [0x00000000]
0x........ 0x0004 SRC # 8 : Shutdown Time in seconds                      -1 [0xFFFFFFFF]
0x........ 0x0200 SRC # 8 : Filter Command                                  
0x........ 0x0004 SRC # 8 : Next Renegotiate Time                          0
0x........ 0x0004 SRC # 8 : Number of TLS/SSL renegotiations               0 [0x00000000]
0x........ 0x0004 SRC # 8 : Trigger updates replicated (-trigupdate)  ##TorF
----------------------------------------------------------------------------
----------------------------------------------------------------------------
Offset     Size
0x........ 0x0010 SRC # 9 : Secondary Instance Name               INSTANCE11
0x........ 0x0004 SRC # 9 : Source Server Pid                        ##PID##
0x........ 0x0004 SRC # 9 : Source Server Mode                        ACTIVE
0x........ 0x0004 SRC # 9 : Processing State                 SENDING_JNLRECS
0x........ 0x0004 SRC # 9 : Slot Index                                     9
0x........ 0x0004 SRC # 9 : Journal record Compression Level         ##LVL##
0x........ 0x0004 SRC # 9 : Remote Protocol Version                        6 [0x00000006]
0x........ 0x0004 SRC # 9 : Remote Journal Version                        45 [0x0000002D]
0x........ 0x0004 SRC # 9 : Remote has Standard Null Collation          TRUE
0x........ 0x0004 SRC # 9 : Remote Supports Triggers       ##TRUE_OR_FALSE##
0x........ 0x0004 SRC # 9 : Remote is Cross Endian         ##TRUE_OR_FALSE##
0x........ 0x0004 SRC # 9 : Remote Endianness Known                     TRUE
0x........ 0x0004 SRC # 9 : Remote needs Null Subs Xform               FALSE
0x........ 0x0004 SRC # 9 : Remote is Supplementary Instance  ##TRUE/FALSE##
0x........ 0x0004 SRC # 9 : Currently Reading from          ##POOL_OR_FILE##
0x........ 0x0004 SRC # 9 : Journal File Only              ##TRUE_OR_FALSE##
0x........ 0x0008 SRC # 9 : Relative Read Offset                 ##OFFSET1##
0x........ 0x0008 SRC # 9 : Absolute Read Offset                 ##OFFSET1##
0x........ 0x0008 SRC # 9 : Resync Sequence Number             ##JNLSEQNO1##
0x........ 0x0008 SRC # 9 : Connect Sequence Number                        1 [0x0000000000000001]
0x........ 0x0004 SRC # 9 : Number of histinfo structures                  1 [0x00000001]
0x........ 0x0004 SRC # 9 : Next histinfo Number                           1 [0x00000001]
0x........ 0x0008 SRC # 9 : Next histinfo Seqno         18446744073709551615 [0xFFFFFFFFFFFFFFFF]
0x........ 0x0008 SRC # 9 : Last Flush Resync Seqno            ##JNLSEQNO1##
0x........ 0x0004 SRC # 9 : Send New histinfo                          FALSE
0x........ 0x0004 SRC # 9 : Send LostTN Complete                       FALSE
0x........ 0x0100 SRC # 9 : Secondary HOSTNAME                  ##HOSTNAME##
0x........ 0x0004 SRC # 9 : Secondary Address Family        ##IPv4_OR_IPv6##
0x........ 0x.... SRC # 9 : Secondary INET Address              ##INETADDR##
0x........ 0x0004 SRC # 9 : Secondary Port                        ##PORTNO## [0x........]
0x........ 0x0004 SRC # 9 : Log Interval                                1000 [0x000003E8]
0x........ 0x0100 SRC # 9 : Log File                             ##LOGFILE##
0x........ 0x0004 SRC # 9 : Changelog                                      0 [0x00000000]
0x........ 0x0004 SRC # 9 : Statslog                                       0 [0x00000000]
0x........ 0x0100 SRC # 9 : Statslog File                                   
0x........ 0x0004 SRC # 9 : Connect Parms Hard Tries Count                 5 [0x00000005]
0x........ 0x0004 SRC # 9 : Connect Parms Hard Tries Period              500 [0x000001F4]
0x........ 0x0004 SRC # 9 : Connect Parms Soft Tries Period                5 [0x00000005]
0x........ 0x0004 SRC # 9 : Connect Parms Alert Period                     0 [0x00000000]
0x........ 0x0004 SRC # 9 : Connect Parms Heartbeat Period                15 [0x0000000F]
0x........ 0x0004 SRC # 9 : Connect Parms Heartbeat Max Wait             300 [0x0000012C]
0x........ 0x0004 SRC # 9 : Shutdown State                                 0 [0x00000000]
0x........ 0x0004 SRC # 9 : Shutdown Time in seconds                      -1 [0xFFFFFFFF]
0x........ 0x0200 SRC # 9 : Filter Command                                  
0x........ 0x0004 SRC # 9 : Next Renegotiate Time                          0
0x........ 0x0004 SRC # 9 : Number of TLS/SSL renegotiations               0 [0x00000000]
0x........ 0x0004 SRC # 9 : Trigger updates replicated (-trigupdate)  ##TorF
----------------------------------------------------------------------------
----------------------------------------------------------------------------
Offset     Size
0x........ 0x0010 SRC #10 : Secondary Instance Name               INSTANCE12
0x........ 0x0004 SRC #10 : Source Server Pid                        ##PID##
0x........ 0x0004 SRC #10 : Source Server Mode                        ACTIVE
0x........ 0x0004 SRC #10 : Processing State                 SENDING_JNLRECS
0x........ 0x0004 SRC #10 : Slot Index                                    10
0x........ 0x0004 SRC #10 : Journal record Compression Level         ##LVL##
0x........ 0x0004 SRC #10 : Remote Protocol Version                        6 [0x00000006]
0x........ 0x0004 SRC #10 : Remote Journal Version                        45 [0x0000002D]
0x........ 0x0004 SRC #10 : Remote has Standard Null Collation          TRUE
0x........ 0x0004 SRC #10 : Remote Supports Triggers       ##TRUE_OR_FALSE##
0x........ 0x0004 SRC #10 : Remote is Cross Endian         ##TRUE_OR_FALSE##
0x........ 0x0004 SRC #10 : Remote Endianness Known                     TRUE
0x........ 0x0004 SRC #10 : Remote needs Null Subs Xform               FALSE
0x........ 0x0004 SRC #10 : Remote is Supplementary Instance  ##TRUE/FALSE##
0x........ 0x0004 SRC #10 : Currently Reading from          ##POOL_OR_FILE##
0x........ 0x0004 SRC #10 : Journal File Only              ##TRUE_OR_FALSE##
0x........ 0x0008 SRC #10 : Relative Read Offset                 ##OFFSET1##
0x........ 0x0008 SRC #10 : Absolute Read Offset                 ##OFFSET1##
0x........ 0x0008 SRC #10 : Resync Sequence Number             ##JNLSEQNO1##
0x........ 0x0008 SRC #10 : Connect Sequence Number                        1 [0x0000000000000001]
0x........ 0x0004 SRC #10 : Number of histinfo structures                  1 [0x00000001]
0x........ 0x0004 SRC #10 : Next histinfo Number                           1 [0x00000001]
0x........ 0x0008 SRC #10 : Next histinfo Seqno         18446744073709551615 [0xFFFFFFFFFFFFFFFF]
0x........ 0x0008 SRC #10 : Last Flush Resync Seqno            ##JNLSEQNO1##
0x........ 0x0004 SRC #10 : Send New histinfo                          FALSE
0x........ 0x0004 SRC #10 : Send LostTN Complete                       FALSE
0x........ 0x0100 SRC #10 : Secondary HOSTNAME                  ##HOSTNAME##
0x........ 0x0004 SRC #10 : Secondary Address Family        ##IPv4_OR_IPv6##
0x........ 0x.... SRC #10 : Secondary INET Address              ##INETADDR##
0x........ 0x0004 SRC #10 : Secondary Port                        ##PORTNO## [0x........]
0x........ 0x0004 SRC #10 : Log Interval                                1000 [0x000003E8]
0x........ 0x0100 SRC #10 : Log File                             ##LOGFILE##
0x........ 0x0004 SRC #10 : Changelog                                      0 [0x00000000]
0x........ 0x0004 SRC #10 : Statslog                                       0 [0x00000000]
0x........ 0x0100 SRC #10 : Statslog File                                   
0x........ 0x0004 SRC #10 : Connect Parms Hard Tries Count                 5 [0x00000005]
0x........ 0x0004 SRC #10 : Connect Parms Hard Tries Period              500 [0x000001F4]
0x........ 0x0004 SRC #10 : Connect Parms Soft Tries Period                5 [0x00000005]
0x........ 0x0004 SRC #10 : Connect Parms Alert Period                     0 [0x00000000]
0x........ 0x0004 SRC #10 : Connect Parms Heartbeat Period                15 [0x0000000F]
0x........ 0x0004 SRC #10 : Connect Parms Heartbeat Max Wait             300 [0x0000012C]
0x........ 0x0004 SRC #10 : Shutdown State                                 0 [0x00000000]
0x........ 0x0004 SRC #10 : Shutdown Time in seconds                      -1 [0xFFFFFFFF]
0x........ 0x0200 SRC #10 : Filter Command                                  
0x........ 0x0004 SRC #10 : Next Renegotiate Time                          0
0x........ 0x0004 SRC #10 : Number of TLS/SSL renegotiations               0 [0x00000000]
0x........ 0x0004 SRC #10 : Trigger updates replicated (-trigupdate)  ##TorF
----------------------------------------------------------------------------
----------------------------------------------------------------------------
Offset     Size
0x........ 0x0010 SRC #11 : Secondary Instance Name               INSTANCE13
0x........ 0x0004 SRC #11 : Source Server Pid                        ##PID##
0x........ 0x0004 SRC #11 : Source Server Mode                        ACTIVE
0x........ 0x0004 SRC #11 : Processing State                 SENDING_JNLRECS
0x........ 0x0004 SRC #11 : Slot Index                                    11
0x........ 0x0004 SRC #11 : Journal record Compression Level         ##LVL##
0x........ 0x0004 SRC #11 : Remote Protocol Version                        6 [0x00000006]
0x........ 0x0004 SRC #11 : Remote Journal Version                        45 [0x0000002D]
0x........ 0x0004 SRC #11 : Remote has Standard Null Collation          TRUE
0x........ 0x0004 SRC #11 : Remote Supports Triggers       ##TRUE_OR_FALSE##
0x........ 0x0004 SRC #11 : Remote is Cross Endian         ##TRUE_OR_FALSE##
0x........ 0x0004 SRC #11 : Remote Endianness Known                     TRUE
0x........ 0x0004 SRC #11 : Remote needs Null Subs Xform               FALSE
0x........ 0x0004 SRC #11 : Remote is Supplementary Instance  ##TRUE/FALSE##
0x........ 0x0004 SRC #11 : Currently Reading from          ##POOL_OR_FILE##
0x........ 0x0004 SRC #11 : Journal File Only              ##TRUE_OR_FALSE##
0x........ 0x0008 SRC #11 : Relative Read Offset                 ##OFFSET1##
0x........ 0x0008 SRC #11 : Absolute Read Offset                 ##OFFSET1##
0x........ 0x0008 SRC #11 : Resync Sequence Number             ##JNLSEQNO1##
0x........ 0x0008 SRC #11 : Connect Sequence Number                        1 [0x0000000000000001]
0x........ 0x0004 SRC #11 : Number of histinfo structures                  1 [0x00000001]
0x........ 0x0004 SRC #11 : Next histinfo Number                           1 [0x00000001]
0x........ 0x0008 SRC #11 : Next histinfo Seqno         18446744073709551615 [0xFFFFFFFFFFFFFFFF]
0x........ 0x0008 SRC #11 : Last Flush Resync Seqno            ##JNLSEQNO1##
0x........ 0x0004 SRC #11 : Send New histinfo                          FALSE
0x........ 0x0004 SRC #11 : Send LostTN Complete                       FALSE
0x........ 0x0100 SRC #11 : Secondary HOSTNAME                  ##HOSTNAME##
0x........ 0x0004 SRC #11 : Secondary Address Family        ##IPv4_OR_IPv6##
0x........ 0x.... SRC #11 : Secondary INET Address              ##INETADDR##
0x........ 0x0004 SRC #11 : Secondary Port                        ##PORTNO## [0x........]
0x........ 0x0004 SRC #11 : Log Interval                                1000 [0x000003E8]
0x........ 0x0100 SRC #11 : Log File                             ##LOGFILE##
0x........ 0x0004 SRC #11 : Changelog                                      0 [0x00000000]
0x........ 0x0004 SRC #11 : Statslog                                       0 [0x00000000]
0x........ 0x0100 SRC #11 : Statslog File                                   
0x........ 0x0004 SRC #11 : Connect Parms Hard Tries Count                 5 [0x00000005]
0x........ 0x0004 SRC #11 : Connect Parms Hard Tries Period              500 [0x000001F4]
0x........ 0x0004 SRC #11 : Connect Parms Soft Tries Period                5 [0x00000005]
0x........ 0x0004 SRC #11 : Connect Parms Alert Period                     0 [0x00000000]
0x........ 0x0004 SRC #11 : Connect Parms Heartbeat Period                15 [0x0000000F]
0x........ 0x0004 SRC #11 : Connect Parms Heartbeat Max Wait             300 [0x0000012C]
0x........ 0x0004 SRC #11 : Shutdown State                                 0 [0x00000000]
0x........ 0x0004 SRC #11 : Shutdown Time in seconds                      -1 [0xFFFFFFFF]
0x........ 0x0200 SRC #11 : Filter Command                                  
0x........ 0x0004 SRC #11 : Next Renegotiate Time                          0
0x........ 0x0004 SRC #11 : Number of TLS/SSL renegotiations               0 [0x00000000]
0x........ 0x0004 SRC #11 : Trigger updates replicated (-trigupdate)  ##TorF
----------------------------------------------------------------------------
----------------------------------------------------------------------------
Offset     Size
0x........ 0x0010 SRC #12 : Secondary Instance Name               INSTANCE14
0x........ 0x0004 SRC #12 : Source Server Pid                        ##PID##
0x........ 0x0004 SRC #12 : Source Server Mode                        ACTIVE
0x........ 0x0004 SRC #12 : Processing State                 SENDING_JNLRECS
0x........ 0x0004 SRC #12 : Slot Index                                    12
0x........ 0x0004 SRC #12 : Journal record Compression Level         ##LVL##
0x........ 0x0004 SRC #12 : Remote Protocol Version                        6 [0x00000006]
0x........ 0x0004 SRC #12 : Remote Journal Version                        45 [0x0000002D]
0x........ 0x0004 SRC #12 : Remote has Standard Null Collation          TRUE
0x........ 0x0004 SRC #12 : Remote Supports Triggers       ##TRUE_OR_FALSE##
0x........ 0x0004 SRC #12 : Remote is Cross Endian         ##TRUE_OR_FALSE##
0x........ 0x0004 SRC #12 : Remote Endianness Known                     TRUE
0x........ 0x0004 SRC #12 : Remote needs Null Subs Xform               FALSE
0x........ 0x0004 SRC #12 : Remote is Supplementary Instance  ##TRUE/FALSE##
0x........ 0x0004 SRC #12 : Currently Reading from          ##POOL_OR_FILE##
0x........ 0x0004 SRC #12 : Journal File Only              ##TRUE_OR_FALSE##
0x........ 0x0008 SRC #12 : Relative Read Offset                 ##OFFSET1##
0x........ 0x0008 SRC #12 : Absolute Read Offset                 ##OFFSET1##
0x........ 0x0008 SRC #12 : Resync Sequence Number             ##JNLSEQNO1##
0x........ 0x0008 SRC #12 : Connect Sequence Number                        1 [0x0000000000000001]
0x........ 0x0004 SRC #12 : Number of histinfo structures                  1 [0x00000001]
0x........ 0x0004 SRC #12 : Next histinfo Number                           1 [0x00000001]
0x........ 0x0008 SRC #12 : Next histinfo Seqno         18446744073709551615 [0xFFFFFFFFFFFFFFFF]
0x........ 0x0008 SRC #12 : Last Flush Resync Seqno            ##JNLSEQNO1##
0x........ 0x0004 SRC #12 : Send New histinfo                          FALSE
0x........ 0x0004 SRC #12 : Send LostTN Complete                       FALSE
0x........ 0x0100 SRC #12 : Secondary HOSTNAME                  ##HOSTNAME##
0x........ 0x0004 SRC #12 : Secondary Address Family        ##IPv4_OR_IPv6##
0x........ 0x.... SRC #12 : Secondary INET Address              ##INETADDR##
0x........ 0x0004 SRC #12 : Secondary Port                        ##PORTNO## [0x........]
0x........ 0x0004 SRC #12 : Log Interval                                1000 [0x000003E8]
0x........ 0x0100 SRC #12 : Log File                             ##LOGFILE##
0x........ 0x0004 SRC #12 : Changelog                                      0 [0x00000000]
0x........ 0x0004 SRC #12 : Statslog                                       0 [0x00000000]
0x........ 0x0100 SRC #12 : Statslog File                                   
0x........ 0x0004 SRC #12 : Connect Parms Hard Tries Count                 5 [0x00000005]
0x........ 0x0004 SRC #12 : Connect Parms Hard Tries Period              500 [0x000001F4]
0x........ 0x0004 SRC #12 : Connect Parms Soft Tries Period                5 [0x00000005]
0x........ 0x0004 SRC #12 : Connect Parms Alert Period                     0 [0x00000000]
0x........ 0x0004 SRC #12 : Connect Parms Heartbeat Period                15 [0x0000000F]
0x........ 0x0004 SRC #12 : Connect Parms Heartbeat Max Wait             300 [0x0000012C]
0x........ 0x0004 SRC #12 : Shutdown State                                 0 [0x00000000]
0x........ 0x0004 SRC #12 : Shutdown Time in seconds                      -1 [0xFFFFFFFF]
0x........ 0x0200 SRC #12 : Filter Command                                  
0x........ 0x0004 SRC #12 : Next Renegotiate Time                          0
0x........ 0x0004 SRC #12 : Number of TLS/SSL renegotiations               0 [0x00000000]
0x........ 0x0004 SRC #12 : Trigger updates replicated (-trigupdate)  ##TorF
----------------------------------------------------------------------------
----------------------------------------------------------------------------
Offset     Size
0x........ 0x0010 SRC #13 : Secondary Instance Name               INSTANCE15
0x........ 0x0004 SRC #13 : Source Server Pid                        ##PID##
0x........ 0x0004 SRC #13 : Source Server Mode                        ACTIVE
0x........ 0x0004 SRC #13 : Processing State                 SENDING_JNLRECS
0x........ 0x0004 SRC #13 : Slot Index                                    13
0x........ 0x0004 SRC #13 : Journal record Compression Level         ##LVL##
0x........ 0x0004 SRC #13 : Remote Protocol Version                        6 [0x00000006]
0x........ 0x0004 SRC #13 : Remote Journal Version                        45 [0x0000002D]
0x........ 0x0004 SRC #13 : Remote has Standard Null Collation          TRUE
0x........ 0x0004 SRC #13 : Remote Supports Triggers       ##TRUE_OR_FALSE##
0x........ 0x0004 SRC #13 : Remote is Cross Endian         ##TRUE_OR_FALSE##
0x........ 0x0004 SRC #13 : Remote Endianness Known                     TRUE
0x........ 0x0004 SRC #13 : Remote needs Null Subs Xform               FALSE
0x........ 0x0004 SRC #13 : Remote is Supplementary Instance  ##TRUE/FALSE##
0x........ 0x0004 SRC #13 : Currently Reading from          ##POOL_OR_FILE##
0x........ 0x0004 SRC #13 : Journal File Only              ##TRUE_OR_FALSE##
0x........ 0x0008 SRC #13 : Relative Read Offset                 ##OFFSET1##
0x........ 0x0008 SRC #13 : Absolute Read Offset                 ##OFFSET1##
0x........ 0x0008 SRC #13 : Resync Sequence Number             ##JNLSEQNO1##
0x........ 0x0008 SRC #13 : Connect Sequence Number                        1 [0x0000000000000001]
0x........ 0x0004 SRC #13 : Number of histinfo structures                  1 [0x00000001]
0x........ 0x0004 SRC #13 : Next histinfo Number                           1 [0x00000001]
0x........ 0x0008 SRC #13 : Next histinfo Seqno         18446744073709551615 [0xFFFFFFFFFFFFFFFF]
0x........ 0x0008 SRC #13 : Last Flush Resync Seqno            ##JNLSEQNO1##
0x........ 0x0004 SRC #13 : Send New histinfo                          FALSE
0x........ 0x0004 SRC #13 : Send LostTN Complete                       FALSE
0x........ 0x0100 SRC #13 : Secondary HOSTNAME                  ##HOSTNAME##
0x........ 0x0004 SRC #13 : Secondary Address Family        ##IPv4_OR_IPv6##
0x........ 0x.... SRC #13 : Secondary INET Address              ##INETADDR##
0x........ 0x0004 SRC #13 : Secondary Port                        ##PORTNO## [0x........]
0x........ 0x0004 SRC #13 : Log Interval                                1000 [0x000003E8]
0x........ 0x0100 SRC #13 : Log File                             ##LOGFILE##
0x........ 0x0004 SRC #13 : Changelog                                      0 [0x00000000]
0x........ 0x0004 SRC #13 : Statslog                                       0 [0x00000000]
0x........ 0x0100 SRC #13 : Statslog File                                   
0x........ 0x0004 SRC #13 : Connect Parms Hard Tries Count                 5 [0x00000005]
0x........ 0x0004 SRC #13 : Connect Parms Hard Tries Period              500 [0x000001F4]
0x........ 0x0004 SRC #13 : Connect Parms Soft Tries Period                5 [0x00000005]
0x........ 0x0004 SRC #13 : Connect Parms Alert Period                     0 [0x00000000]
0x........ 0x0004 SRC #13 : Connect Parms Heartbeat Period                15 [0x0000000F]
0x........ 0x0004 SRC #13 : Connect Parms Heartbeat Max Wait             300 [0x0000012C]
0x........ 0x0004 SRC #13 : Shutdown State                                 0 [0x00000000]
0x........ 0x0004 SRC #13 : Shutdown Time in seconds                      -1 [0xFFFFFFFF]
0x........ 0x0200 SRC #13 : Filter Command                                  
0x........ 0x0004 SRC #13 : Next Renegotiate Time                          0
0x........ 0x0004 SRC #13 : Number of TLS/SSL renegotiations               0 [0x00000000]
0x........ 0x0004 SRC #13 : Trigger updates replicated (-trigupdate)  ##TorF
----------------------------------------------------------------------------
----------------------------------------------------------------------------
Offset     Size
0x........ 0x0010 SRC #14 : Secondary Instance Name               INSTANCE16
0x........ 0x0004 SRC #14 : Source Server Pid                        ##PID##
0x........ 0x0004 SRC #14 : Source Server Mode                        ACTIVE
0x........ 0x0004 SRC #14 : Processing State                 SENDING_JNLRECS
0x........ 0x0004 SRC #14 : Slot Index                                    14
0x........ 0x0004 SRC #14 : Journal record Compression Level         ##LVL##
0x........ 0x0004 SRC #14 : Remote Protocol Version                        6 [0x00000006]
0x........ 0x0004 SRC #14 : Remote Journal Version                        45 [0x0000002D]
0x........ 0x0004 SRC #14 : Remote has Standard Null Collation          TRUE
0x........ 0x0004 SRC #14 : Remote Supports Triggers       ##TRUE_OR_FALSE##
0x........ 0x0004 SRC #14 : Remote is Cross Endian         ##TRUE_OR_FALSE##
0x........ 0x0004 SRC #14 : Remote Endianness Known                     TRUE
0x........ 0x0004 SRC #14 : Remote needs Null Subs Xform               FALSE
0x........ 0x0004 SRC #14 : Remote is Supplementary Instance  ##TRUE/FALSE##
0x........ 0x0004 SRC #14 : Currently Reading from          ##POOL_OR_FILE##
0x........ 0x0004 SRC #14 : Journal File Only              ##TRUE_OR_FALSE##
0x........ 0x0008 SRC #14 : Relative Read Offset                 ##OFFSET1##
0x........ 0x0008 SRC #14 : Absolute Read Offset                 ##OFFSET1##
0x........ 0x0008 SRC #14 : Resync Sequence Number             ##JNLSEQNO1##
0x........ 0x0008 SRC #14 : Connect Sequence Number                        1 [0x0000000000000001]
0x........ 0x0004 SRC #14 : Number of histinfo structures                  1 [0x00000001]
0x........ 0x0004 SRC #14 : Next histinfo Number                           1 [0x00000001]
0x........ 0x0008 SRC #14 : Next histinfo Seqno         18446744073709551615 [0xFFFFFFFFFFFFFFFF]
0x........ 0x0008 SRC #14 : Last Flush Resync Seqno            ##JNLSEQNO1##
0x........ 0x0004 SRC #14 : Send New histinfo                          FALSE
0x........ 0x0004 SRC #14 : Send LostTN Complete                       FALSE
0x........ 0x0100 SRC #14 : Secondary HOSTNAME                  ##HOSTNAME##
0x........ 0x0004 SRC #14 : Secondary Address Family        ##IPv4_OR_IPv6##
0x........ 0x.... SRC #14 : Secondary INET Address              ##INETADDR##
0x........ 0x0004 SRC #14 : Secondary Port                        ##PORTNO## [0x........]
0x........ 0x0004 SRC #14 : Log Interval                                1000 [0x000003E8]
0x........ 0x0100 SRC #14 : Log File                             ##LOGFILE##
0x........ 0x0004 SRC #14 : Changelog                                      0 [0x00000000]
0x........ 0x0004 SRC #14 : Statslog                                       0 [0x00000000]
0x........ 0x0100 SRC #14 : Statslog File                                   
0x........ 0x0004 SRC #14 : Connect Parms Hard Tries Count                 5 [0x00000005]
0x........ 0x0004 SRC #14 : Connect Parms Hard Tries Period              500 [0x000001F4]
0x........ 0x0004 SRC #14 : Connect Parms Soft Tries Period                5 [0x00000005]
0x........ 0x0004 SRC #14 : Connect Parms Alert Period                     0 [0x00000000]
0x........ 0x0004 SRC #14 : Connect Parms Heartbeat Period                15 [0x0000000F]
0x........ 0x0004 SRC #14 : Connect Parms Heartbeat Max Wait             300 [0x0000012C]
0x........ 0x0004 SRC #14 : Shutdown State                                 0 [0x00000000]
0x........ 0x0004 SRC #14 : Shutdown Time in seconds                      -1 [0xFFFFFFFF]
0x........ 0x0200 SRC #14 : Filter Command                                  
0x........ 0x0004 SRC #14 : Next Renegotiate Time                          0
0x........ 0x0004 SRC #14 : Number of TLS/SSL renegotiations               0 [0x00000000]
0x........ 0x0004 SRC #14 : Trigger updates replicated (-trigupdate)  ##TorF
----------------------------------------------------------------------------
----------------------------------------------------------------------------
Offset     Size
0x........ 0x0010 SRC #15 : Secondary Instance Name               INSTANCE17
0x........ 0x0004 SRC #15 : Source Server Pid                        ##PID##
0x........ 0x0004 SRC #15 : Source Server Mode                        ACTIVE
0x........ 0x0004 SRC #15 : Processing State                 SENDING_JNLRECS
0x........ 0x0004 SRC #15 : Slot Index                                    15
0x........ 0x0004 SRC #15 : Journal record Compression Level         ##LVL##
0x........ 0x0004 SRC #15 : Remote Protocol Version                        6 [0x00000006]
0x........ 0x0004 SRC #15 : Remote Journal Version                        45 [0x0000002D]
0x........ 0x0004 SRC #15 : Remote has Standard Null Collation          TRUE
0x........ 0x0004 SRC #15 : Remote Supports Triggers       ##TRUE_OR_FALSE##
0x........ 0x0004 SRC #15 : Remote is Cross Endian         ##TRUE_OR_FALSE##
0x........ 0x0004 SRC #15 : Remote Endianness Known                     TRUE
0x........ 0x0004 SRC #15 : Remote needs Null Subs Xform               FALSE
0x........ 0x0004 SRC #15 : Remote is Supplementary Instance  ##TRUE/FALSE##
0x........ 0x0004 SRC #15 : Currently Reading from          ##POOL_OR_FILE##
0x........ 0x0004 SRC #15 : Journal File Only              ##TRUE_OR_FALSE##
0x........ 0x0008 SRC #15 : Relative Read Offset                 ##OFFSET1##
0x........ 0x0008 SRC #15 : Absolute Read Offset                 ##OFFSET1##
0x........ 0x0008 SRC #15 : Resync Sequence Number             ##JNLSEQNO1##
0x........ 0x0008 SRC #15 : Connect Sequence Number                        1 [0x0000000000000001]
0x........ 0x0004 SRC #15 : Number of histinfo structures                  1 [0x00000001]
0x........ 0x0004 SRC #15 : Next histinfo Number                           1 [0x00000001]
0x........ 0x0008 SRC #15 : Next histinfo Seqno         18446744073709551615 [0xFFFFFFFFFFFFFFFF]
0x........ 0x0008 SRC #15 : Last Flush Resync Seqno            ##JNLSEQNO1##
0x........ 0x0004 SRC #15 : Send New histinfo                          FALSE
0x........ 0x0004 SRC #15 : Send LostTN Complete                       FALSE
0x........ 0x0100 SRC #15 : Secondary HOSTNAME                  ##HOSTNAME##
0x........ 0x0004 SRC #15 : Secondary Address Family        ##IPv4_OR_IPv6##
0x........ 0x.... SRC #15 : Secondary INET Address              ##INETADDR##
0x........ 0x0004 SRC #15 : Secondary Port                        ##PORTNO## [0x........]
0x........ 0x0004 SRC #15 : Log Interval                                1000 [0x000003E8]
0x........ 0x0100 SRC #15 : Log File                             ##LOGFILE##
0x........ 0x0004 SRC #15 : Changelog                                      0 [0x00000000]
0x........ 0x0004 SRC #15 : Statslog                                       0 [0x00000000]
0x........ 0x0100 SRC #15 : Statslog File                                   
0x........ 0x0004 SRC #15 : Connect Parms Hard Tries Count                 5 [0x00000005]
0x........ 0x0004 SRC #15 : Connect Parms Hard Tries Period              500 [0x000001F4]
0x........ 0x0004 SRC #15 : Connect Parms Soft Tries Period                5 [0x00000005]
0x........ 0x0004 SRC #15 : Connect Parms Alert Period                     0 [0x00000000]
0x........ 0x0004 SRC #15 : Connect Parms Heartbeat Period                15 [0x0000000F]
0x........ 0x0004 SRC #15 : Connect Parms Heartbeat Max Wait             300 [0x0000012C]
0x........ 0x0004 SRC #15 : Shutdown State                                 0 [0x00000000]
0x........ 0x0004 SRC #15 : Shutdown Time in seconds                      -1 [0xFFFFFFFF]
0x........ 0x0200 SRC #15 : Filter Command                                  
0x........ 0x0004 SRC #15 : Next Renegotiate Time                          0
0x........ 0x0004 SRC #15 : Number of TLS/SSL renegotiations               0 [0x00000000]
0x........ 0x0004 SRC #15 : Trigger updates replicated (-trigupdate)  ##TorF
----------------------------------------------------------------------------
